<svg width="22" height="20" viewBox="0 0 22 20" fill="none" xmlns="http://www.w3.org/2000/svg">
<path fill-rule="evenodd" clip-rule="evenodd" d="M11.5769 3.37347C12.3799 2.61492 13.6817 2.61492 14.4846 3.37347L17.5647 6.28339C18.3677 7.04193 18.3677 8.27178 17.5647 9.03032L10.1628 16.0232C10.0782 16.1031 9.96673 16.1526 9.84762 16.1632L5.83463 16.521C4.53893 16.6365 3.45707 15.5999 3.59749 14.3776L4.02457 10.66C4.03721 10.55 4.08926 10.4473 4.17211 10.369L11.5769 3.37347ZM12.3031 5.51594C12.7045 5.13667 13.3554 5.13667 13.7569 5.51594L15.297 6.9709C15.6984 7.35017 15.6984 7.9651 15.297 8.34437L9.28443 14.0246L7.05343 14.4469C6.33385 14.5832 5.69929 13.9837 5.84348 13.3039L6.29053 11.1962L10.0344 7.65922L13.0283 10.4876L14.5261 9.07263L11.5322 6.24422L12.3031 5.51594Z" fill="#F05D63"/>
</svg>
